URL,AD CATEGORY,BODACC,AD NUMBER,PUBLICATION DATE,RCS NUMBER,DENOMINATION,FORM,CAPITAL,ADDRESS,ZIP CODE,LOCATION,FROM,START DATE OF ACTIVITY,OPPOSITION,COMMENTS,ESTABLISHMENT:ORIGIN OF THE FUND,ESTABLISHMENT:TEACHES,ESTABLISHMENT ADDRESS,PREVIOUS OWNER ID,PREVIOUS OWNER NAME,PREVIOUS OPERATOR ID,PREVIOUS OPERATOR NAME
https://www.bodacc.fr/annonce/detail-annonce/A/20080238/1179,Ventes et cessions,A,20080238,28/12/2008,334 935 012, BIJOUX JACQUELINE SINGH,Société par actions simplifiée,38113.0,102 rue du Temple,75003.0,Paris,20/03/1986,26/06/2008,pas d'ooposition dans le cadre d'une procédure collective pour la validité .,,"Fonds acquis par achat au prix stipulé de 110000,00 euros.",,  40 rue des Petits Champs 75002  Paris ,,,,
https://www.bodacc.fr/annonce/detail-annonce/A/20080218/1622,Ventes et cessions,A,20080218,28/11/2008,508 955 572, LE PARIS D'ORIENT,Société à responsabilité limitée,1000.0,3 bis rue Bleue,75009.0,Paris,14/11/2008,24/10/2008,"pas d'opposition pour la validité , acquis dans le cadre d'une procedure collective pour la correspondance .",,"Fonds acquis dans le cadre d'une liquidation judiciaire au prix stipulé de 26750,00 euros.",,  3 bis rue Bleue 75009  Paris ,490 258 456 RCS Paris,L'ESSENTIEL,490 258 456 RCS Paris,L'ESSENTIEL
https://www.bodacc.fr/annonce/detail-annonce/A/20080190/940,Ventes et cessions,A,20080190,19/10/2008,504 464 751, SOCIETE BINA,Société à responsabilité limitée,1000.0,96 rue des Entrepreneurs,75015.0,Paris,02/06/2008,18/07/2008,PAS D'OPPOSITION VENTE DANS LE CADRE D'UNE PROCEDURE COLLECTIVE pour la validité .,,"Fonds acquis par achat au prix stipulé de 28000,00 euros.",,  96 rue des Entrepreneurs 75015  Paris ,491 375 812 RCS Paris,"Drault,Thierry Jacques Yves",491 375 812 RCS Paris,"Drault,Thierry Jacques Yves"
https://www.bodacc.fr/annonce/detail-annonce/A/20080185/1292,Ventes et cessions,A,20080185,12/10/2008,330 506 437," ROCHE, GERARD",,,,,,21/11/2005,02/09/2008,FONDS ACQUIS DANS LE CADRE D'UNE PROCEDURE COLLECTIVE pour la validité .,Ajout d'un établissement complémentaire.,"Fonds acquis par achat au prix stipulé de 18000,00 euros.",,  59 rue Servan 75011  Paris ,442 024 402 RCS Paris,EDEN TROPICAL,442 024 402 RCS Paris,EDEN TROPICAL
https://www.bodacc.fr/annonce/detail-annonce/A/20080185/1293,Ventes et cessions,A,20080185,12/10/2008,484 888 201," PIERRET, DOMINIQUE",,,,,,21/11/2005,02/09/2008,FONDS ACQUIS DANS LE CADRE D'UNE PROCEDURE COLLECTIVE pour la validité .,Ajout d'un établissement complémentaire.,"Fonds acquis par achat au prix stipulé de 18000,00 euros.",,  59 rue Servan 75011  Paris ,442 024 402 RCS Paris,EDEN TROPICAL,442 024 402 RCS Paris,EDEN TROPICAL
https://www.bodacc.fr/annonce/detail-annonce/A/20080184/1248,Ventes et cessions,A,20080184,10/10/2008,382 484 525, TYFATOU,Société à responsabilité limitée,25000.0,103 Rur de Rennes,75006.0,Paris,23/07/1991,06/09/2008,PAS D'OPPOSITION FONDS ACQUIS DANS LE CADRE D'UNE PROCEDURE COLLECTIVE pour la validité .,,"Fonds acquis par achat au prix stipulé de 125800,00 euros.",,  11 rue Tronchet 75008  Paris ,313 790 354 RCS Paris,REILO-PULLMAN TOURISME,313 790 354 RCS Paris,REILO-PULLMAN TOURISME
https://www.bodacc.fr/annonce/detail-annonce/A/20080173/1170,Ventes et cessions,A,20080173,25/09/2008,504 961 335, TRëMA EDITIONS,Société à responsabilité limitée,150000.0,23 rue des Moines,75017.0,Paris,30/06/2008,16/07/2008,Pas d'opposition dans le cadre de la procédure collective pour la validité .," modification survenue sur la prise d'activité, l'activité de l'établissement principal, l'adresse de l'établissement et la date de début d'activité","Fonds acquis par achat au prix stipulé de 35000,00 euros.",,  23 rue des Moines 75017  Paris ,301 029 195 RCS Paris,EDITIONS JEAN MICHEL PLACE - EDITIONS DIFFUSION JMP,301 029 195 RCS Paris,EDITIONS JEAN MICHEL PLACE - EDITIONS DIFFUSION JMP
https://www.bodacc.fr/annonce/detail-annonce/A/20080158/949,Ventes et cessions,A,20080158,04/09/2008,775 738 198, REBILLON - SCHMIT - PREVOT,Société par actions simplifiée,2134280.0,50 boulevard Edgar Quinet,75014.0,Paris,06/09/1965,01/04/2008,pas d'oppositions - acquisition dans le cadre d'une procédure collective pour la validité .,,"Fonds acquis par achat au prix stipulé de 121000,00 euros.",,  28 boulevard de l'Hôpital 75013  Paris ,378 487 060 RCS Paris,POMPES FUNEBRES DE L'OUEST PARISIEN,378 487 060 RCS Paris,POMPES FUNEBRES DE L'OUEST PARISIEN
https://www.bodacc.fr/annonce/detail-annonce/A/20080094/1206,Ventes et cessions,A,20080094,03/06/2008,480 258 714, GEORGES RECH PARIS,Société anonyme,40000.0,13 rue d'Uzès,75002.0,Paris,18/01/2005,19/02/2008,pas d'oppositions - procédure collective pour la validité .,,"Fonds acquis par achat au prix stipulé de 135000,00 euros.",,  45 rue Croix des Petits Champs 75001  Paris ,490 538 279 RCS Paris,AZU.VICTOIRES,490 538 279 RCS Paris,AZU.VICTOIRES
https://www.bodacc.fr/annonce/detail-annonce/A/20080087/1217,Ventes et cessions,A,20080087,23/05/2008,501 372 775, HEXAGONE INFORMATIQUE SYSTEMES,Société à responsabilité limitée,50000.0,45 rue de Lourmel,75015.0,Paris,,12/11/2007,"Dans le cadre des dispositions du Code de Commerce relatives aux procédures collectives, il n'y a pas lieu à réceptions d'opposition - pour la validité .",,"Fonds acquis par achat au prix stipulé de 130000,00 euros.",,  32 rue Alexandre Dumas 75011  Paris ,399 627 298 RCS Paris,HEXAGONE INFORMATIQUE,,
